462.0, 42.0, 2, m
462.0, 92.0, 2, m
462.0, 142.0, 2, m
462.0, 142.0, 2, m
462.0, 192.0, 2, m
462.0, 192.0, 2, m
462.0, 242.0, 2, m
462.0, 242.0, 2, m
462.0, 292.0, 2, m
462.0, 292.0, 2, m
462.0, 342.0, 2, m
462.0, 342.0, 2, m
462.0, 392.0, 2, m
462.0, 392.0, 2, m
532.0, 392.0, 2, m
532.0, 392.0, 2, m
532.0, 342.0, 2, m
532.0, 342.0, 2, m
532.0, 292.0, 2, m
532.0, 292.0, 2, m
532.0, 242.0, 2, m
532.0, 242.0, 2, m
532.0, 192.0, 2, m
532.0, 192.0, 2, m
532.0, 142.0, 2, m
532.0, 142.0, 2, m
532.0, 92.0, 2, m
532.0, 92.0, 2, m
532.0, 42.0, 2, m
532.0, 42.0, 2, m
602.0, 42.0, 2, m
602.0, 42.0, 2, m
672.0, 42.0, 2, m
672.0, 42.0, 2, m
742.0, 42.0, 2, m
742.0, 42.0, 2, m
392.0, 42.0, 2, m
392.0, 42.0, 2, m
322.0, 42.0, 2, m
322.0, 42.0, 2, m
252.0, 42.0, 2, m
252.0, 42.0, 2, m
322.0, 142.0, 3, m
322.0, 142.0, 3, m
252.0, 142.0, 3, m
252.0, 142.0, 3, m
182.0, 142.0, 3, m
182.0, 142.0, 3, m
112.0, 192.0, 3, s
112.0, 192.0, 3, s
112.0, 242.0, 3, s
112.0, 242.0, 3, s
112.0, 292.0, 3, s
112.0, 292.0, 3, s
182.0, 342.0, 3, m
182.0, 342.0, 3, m
252.0, 342.0, 3, m
252.0, 342.0, 3, m
252.0, 342.0, 3, m
252.0, 342.0, 3, m
322.0, 342.0, 3, m
322.0, 342.0, 3, m
672.0, 342.0, 4, m
672.0, 342.0, 4, m
672.0, 292.0, 4, m
672.0, 292.0, 4, m
672.0, 242.0, 4, m
672.0, 242.0, 4, m
672.0, 192.0, 4, m
672.0, 192.0, 4, m
672.0, 142.0, 4, m
672.0, 142.0, 4, m
742.0, 142.0, 4, m
742.0, 142.0, 4, m
812.0, 142.0, 4, m
812.0, 142.0, 4, m
882.0, 142.0, 4, m
882.0, 142.0, 4, m
742.0, 242.0, 4, m
742.0, 242.0, 4, m
812.0, 242.0, 4, s
812.0, 242.0, 4, s
